<?xml version="1.0" encoding="UTF-8"?>
<testsuite xmlns:xsi="http://www.w3.org/2001/XMLSchema-instance" xsi:noNamespaceSchemaLocation="https://maven.apache.org/surefire/maven-surefire-plugin/xsd/surefire-test-report-3.0.xsd" version="3.0" name="in.reqres.APITests" time="7.653" tests="1" errors="0" skipped="0" failures="0">
  <properties>
    <property name="java.specification.version" value="17"/>
    <property name="sun.jnu.encoding" value="UTF-8"/>
    <property name="java.class.path" value="/Users/anastasiacurumova/Library/Mobile Documents/com~apple~CloudDocs/Desktop/BellIntegrator/AT2023API/target/test-classes:/Users/anastasiacurumova/Library/Mobile Documents/com~apple~CloudDocs/Desktop/BellIntegrator/AT2023API/target/classes:/Users/anastasiacurumova/.m2/repository/org/testng/testng/7.7.1/testng-7.7.1.jar:/Users/anastasiacurumova/.m2/repository/org/slf4j/slf4j-api/1.7.36/slf4j-api-1.7.36.jar:/Users/anastasiacurumova/.m2/repository/com/beust/jcommander/1.82/jcommander-1.82.jar:/Users/anastasiacurumova/.m2/repository/org/webjars/jquery/3.6.1/jquery-3.6.1.jar:/Users/anastasiacurumova/.m2/repository/io/rest-assured/rest-assured/5.3.0/rest-assured-5.3.0.jar:/Users/anastasiacurumova/.m2/repository/org/apache/groovy/groovy/4.0.6/groovy-4.0.6.jar:/Users/anastasiacurumova/.m2/repository/org/apache/groovy/groovy-xml/4.0.6/groovy-xml-4.0.6.jar:/Users/anastasiacurumova/.m2/repository/org/apache/httpcomponents/httpclient/4.5.13/httpclient-4.5.13.jar:/Users/anastasiacurumova/.m2/repository/org/apache/httpcomponents/httpcore/4.4.13/httpcore-4.4.13.jar:/Users/anastasiacurumova/.m2/repository/commons-logging/commons-logging/1.2/commons-logging-1.2.jar:/Users/anastasiacurumova/.m2/repository/commons-codec/commons-codec/1.11/commons-codec-1.11.jar:/Users/anastasiacurumova/.m2/repository/org/apache/httpcomponents/httpmime/4.5.13/httpmime-4.5.13.jar:/Users/anastasiacurumova/.m2/repository/org/hamcrest/hamcrest/2.1/hamcrest-2.1.jar:/Users/anastasiacurumova/.m2/repository/org/ccil/cowan/tagsoup/tagsoup/1.2.1/tagsoup-1.2.1.jar:/Users/anastasiacurumova/.m2/repository/io/rest-assured/json-path/5.3.0/json-path-5.3.0.jar:/Users/anastasiacurumova/.m2/repository/org/apache/groovy/groovy-json/4.0.6/groovy-json-4.0.6.jar:/Users/anastasiacurumova/.m2/repository/io/rest-assured/rest-assured-common/5.3.0/rest-assured-common-5.3.0.jar:/Users/anastasiacurumova/.m2/repository/io/rest-assured/xml-path/5.3.0/xml-path-5.3.0.jar:/Users/anastasiacurumova/.m2/repository/org/apache/commons/commons-lang3/3.11/commons-lang3-3.11.jar:/Users/anastasiacurumova/.m2/repository/com/fasterxml/jackson/core/jackson-databind/2.14.1/jackson-databind-2.14.1.jar:/Users/anastasiacurumova/.m2/repository/com/fasterxml/jackson/core/jackson-annotations/2.14.1/jackson-annotations-2.14.1.jar:/Users/anastasiacurumova/.m2/repository/com/fasterxml/jackson/core/jackson-core/2.14.1/jackson-core-2.14.1.jar:/Users/anastasiacurumova/.m2/repository/io/qameta/allure/allure-testng/2.20.0/allure-testng-2.20.0.jar:/Users/anastasiacurumova/.m2/repository/io/qameta/allure/allure-java-commons/2.20.0/allure-java-commons-2.20.0.jar:/Users/anastasiacurumova/.m2/repository/io/qameta/allure/allure-model/2.20.0/allure-model-2.20.0.jar:/Users/anastasiacurumova/.m2/repository/io/qameta/allure/allure-test-filter/2.20.0/allure-test-filter-2.20.0.jar:/Users/anastasiacurumova/.m2/repository/org/jsoup/jsoup/1.15.3/jsoup-1.15.3.jar:"/>
    <property name="java.vm.vendor" value="Eclipse Adoptium"/>
    <property name="sun.arch.data.model" value="64"/>
    <property name="java.vendor.url" value="https://adoptium.net/"/>
    <property name="user.timezone" value="Europe/Moscow"/>
    <property name="os.name" value="Mac OS X"/>
    <property name="java.vm.specification.version" value="17"/>
    <property name="user.country" value="RU"/>
    <property name="sun.java.launcher" value="SUN_STANDARD"/>
    <property name="sun.boot.library.path" value="/Users/anastasiacurumova/.sdkman/candidates/java/17.0.4.1-tem/lib"/>
    <property name="sun.java.command" value="/Users/anastasiacurumova/Library/Mobile Documents/com~apple~CloudDocs/Desktop/BellIntegrator/AT2023API/target/surefire/surefirebooter-20260302115531444_3.jar /Users/anastasiacurumova/Library/Mobile Documents/com~apple~CloudDocs/Desktop/BellIntegrator/AT2023API/target/surefire 2026-03-02T11-55-31_174-jvmRun1 surefire-20260302115531444_1tmp surefire_0-20260302115531444_2tmp"/>
    <property name="http.nonProxyHosts" value="local|*.local|169.254/16|*.169.254/16"/>
    <property name="jdk.debug" value="release"/>
    <property name="test" value="in.reqres.APITests#firstTest"/>
    <property name="surefire.test.class.path" value="/Users/anastasiacurumova/Library/Mobile Documents/com~apple~CloudDocs/Desktop/BellIntegrator/AT2023API/target/test-classes:/Users/anastasiacurumova/Library/Mobile Documents/com~apple~CloudDocs/Desktop/BellIntegrator/AT2023API/target/classes:/Users/anastasiacurumova/.m2/repository/org/testng/testng/7.7.1/testng-7.7.1.jar:/Users/anastasiacurumova/.m2/repository/org/slf4j/slf4j-api/1.7.36/slf4j-api-1.7.36.jar:/Users/anastasiacurumova/.m2/repository/com/beust/jcommander/1.82/jcommander-1.82.jar:/Users/anastasiacurumova/.m2/repository/org/webjars/jquery/3.6.1/jquery-3.6.1.jar:/Users/anastasiacurumova/.m2/repository/io/rest-assured/rest-assured/5.3.0/rest-assured-5.3.0.jar:/Users/anastasiacurumova/.m2/repository/org/apache/groovy/groovy/4.0.6/groovy-4.0.6.jar:/Users/anastasiacurumova/.m2/repository/org/apache/groovy/groovy-xml/4.0.6/groovy-xml-4.0.6.jar:/Users/anastasiacurumova/.m2/repository/org/apache/httpcomponents/httpclient/4.5.13/httpclient-4.5.13.jar:/Users/anastasiacurumova/.m2/repository/org/apache/httpcomponents/httpcore/4.4.13/httpcore-4.4.13.jar:/Users/anastasiacurumova/.m2/repository/commons-logging/commons-logging/1.2/commons-logging-1.2.jar:/Users/anastasiacurumova/.m2/repository/commons-codec/commons-codec/1.11/commons-codec-1.11.jar:/Users/anastasiacurumova/.m2/repository/org/apache/httpcomponents/httpmime/4.5.13/httpmime-4.5.13.jar:/Users/anastasiacurumova/.m2/repository/org/hamcrest/hamcrest/2.1/hamcrest-2.1.jar:/Users/anastasiacurumova/.m2/repository/org/ccil/cowan/tagsoup/tagsoup/1.2.1/tagsoup-1.2.1.jar:/Users/anastasiacurumova/.m2/repository/io/rest-assured/json-path/5.3.0/json-path-5.3.0.jar:/Users/anastasiacurumova/.m2/repository/org/apache/groovy/groovy-json/4.0.6/groovy-json-4.0.6.jar:/Users/anastasiacurumova/.m2/repository/io/rest-assured/rest-assured-common/5.3.0/rest-assured-common-5.3.0.jar:/Users/anastasiacurumova/.m2/repository/io/rest-assured/xml-path/5.3.0/xml-path-5.3.0.jar:/Users/anastasiacurumova/.m2/repository/org/apache/commons/commons-lang3/3.11/commons-lang3-3.11.jar:/Users/anastasiacurumova/.m2/repository/com/fasterxml/jackson/core/jackson-databind/2.14.1/jackson-databind-2.14.1.jar:/Users/anastasiacurumova/.m2/repository/com/fasterxml/jackson/core/jackson-annotations/2.14.1/jackson-annotations-2.14.1.jar:/Users/anastasiacurumova/.m2/repository/com/fasterxml/jackson/core/jackson-core/2.14.1/jackson-core-2.14.1.jar:/Users/anastasiacurumova/.m2/repository/io/qameta/allure/allure-testng/2.20.0/allure-testng-2.20.0.jar:/Users/anastasiacurumova/.m2/repository/io/qameta/allure/allure-java-commons/2.20.0/allure-java-commons-2.20.0.jar:/Users/anastasiacurumova/.m2/repository/io/qameta/allure/allure-model/2.20.0/allure-model-2.20.0.jar:/Users/anastasiacurumova/.m2/repository/io/qameta/allure/allure-test-filter/2.20.0/allure-test-filter-2.20.0.jar:/Users/anastasiacurumova/.m2/repository/org/jsoup/jsoup/1.15.3/jsoup-1.15.3.jar:"/>
    <property name="sun.cpu.endian" value="little"/>
    <property name="user.home" value="/Users/anastasiacurumova"/>
    <property name="user.language" value="ru"/>
    <property name="java.specification.vendor" value="Oracle Corporation"/>
    <property name="java.version.date" value="2022-08-12"/>
    <property name="java.home" value="/Users/anastasiacurumova/.sdkman/candidates/java/17.0.4.1-tem"/>
    <property name="file.separator" value="/"/>
    <property name="basedir" value="/Users/anastasiacurumova/Library/Mobile Documents/com~apple~CloudDocs/Desktop/BellIntegrator/AT2023API"/>
    <property name="java.vm.compressedOopsMode" value="Zero based"/>
    <property name="line.separator" value="&#10;"/>
    <property name="java.vm.specification.vendor" value="Oracle Corporation"/>
    <property name="java.specification.name" value="Java Platform API Specification"/>
    <property name="surefire.real.class.path" value="/Users/anastasiacurumova/Library/Mobile Documents/com~apple~CloudDocs/Desktop/BellIntegrator/AT2023API/target/surefire/surefirebooter-20260302115531444_3.jar"/>
    <property name="sun.management.compiler" value="HotSpot 64-Bit Tiered Compilers"/>
    <property name="ftp.nonProxyHosts" value="local|*.local|169.254/16|*.169.254/16"/>
    <property name="java.runtime.version" value="17.0.4.1+1"/>
    <property name="user.name" value="anastasiacurumova"/>
    <property name="path.separator" value=":"/>
    <property name="os.version" value="12.7.6"/>
    <property name="java.runtime.name" value="OpenJDK Runtime Environment"/>
    <property name="file.encoding" value="UTF-8"/>
    <property name="java.vm.name" value="OpenJDK 64-Bit Server VM"/>
    <property name="java.vendor.version" value="Temurin-17.0.4.1+1"/>
    <property name="maven.ext.class.path" value="/Users/anastasiacurumova/.vscode/extensions/oracle.oracle-java-25.0.1/nbcode/java/maven-nblib/netbeans-eventspy.jar"/>
    <property name="localRepository" value="/Users/anastasiacurumova/.m2/repository"/>
    <property name="java.vendor.url.bug" value="https://github.com/adoptium/adoptium-support/issues"/>
    <property name="java.io.tmpdir" value="/var/folders/5j/h6f3f8z94m50xghdyhz82_c40000gn/T/"/>
    <property name="java.version" value="17.0.4.1"/>
    <property name="user.dir" value="/Users/anastasiacurumova/Library/Mobile Documents/com~apple~CloudDocs/Desktop/BellIntegrator/AT2023API"/>
    <property name="os.arch" value="x86_64"/>
    <property name="java.vm.specification.name" value="Java Virtual Machine Specification"/>
    <property name="native.encoding" value="UTF-8"/>
    <property name="java.library.path" value="/Users/anastasiacurumova/Library/Java/Extensions:/Library/Java/Extensions:/Network/Library/Java/Extensions:/System/Library/Java/Extensions:/usr/lib/java:."/>
    <property name="java.vm.info" value="mixed mode, sharing"/>
    <property name="java.vendor" value="Eclipse Adoptium"/>
    <property name="java.vm.version" value="17.0.4.1+1"/>
    <property name="sun.io.unicode.encoding" value="UnicodeBig"/>
    <property name="socksNonProxyHosts" value="local|*.local|169.254/16|*.169.254/16"/>
    <property name="java.class.version" value="61.0"/>
  </properties>
  <testcase name="firstTest" classname="in.reqres.APITests" time="5.08">
    <system-out><![CDATA[HTTP/1.1 200 OK
Date: Mon, 02 Mar 2026 08:55:37 GMT
Content-Type: application/json; charset=utf-8
Transfer-Encoding: chunked
Connection: keep-alive
Access-Control-Allow-Credentials: true
Access-Control-Allow-Headers: Origin, X-Requested-With, Content-Type, Accept, Authorization, x-api-key
Access-Control-Allow-Methods: GET, POST, PUT, DELETE, OPTIONS
Access-Control-Allow-Origin: http://localhost:5173
Cache-Control: no-store
Etag: W/"5c9-KFuFxlu1/KCqT8RwCyTJmKYf8Rs"
Nel: {"report_to":"heroku-nel","response_headers":["Via"],"max_age":3600,"success_fraction":0.01,"failure_fraction":0.1}
Ratelimit-Limit: 20
Ratelimit-Policy: 20;w=60
Ratelimit-Remaining: 19
Ratelimit-Reset: 60
Referrer-Policy: strict-origin-when-cross-origin
Report-To: {"group":"heroku-nel","endpoints":[{"url":"https://nel.heroku.com/reports?s=WTdf2VQ40XDGtrTD5aPaqtaFMQmfPDlRvmPnhOh8Hxs%3D\u0026sid=c4c9725f-1ab0-44d8-820f-430df2718e11\u0026ts=1772441737"}],"max_age":3600}
Reporting-Endpoints: heroku-nel="https://nel.heroku.com/reports?s=WTdf2VQ40XDGtrTD5aPaqtaFMQmfPDlRvmPnhOh8Hxs%3D&sid=c4c9725f-1ab0-44d8-820f-430df2718e11&ts=1772441737"
Server: cloudflare
Vary: Origin
Via: 1.1 heroku-router
X-Content-Type-Options: nosniff
X-Frame-Options: DENY
X-Powered-By: ReqRes.in - Deploy backends in 30 seconds
X-Ratelimit-Limit: 250
X-Ratelimit-Remaining: 208
X-Ratelimit-Reset: 1772496000
X-Reqres-Docs: https://reqres.in
X-Reqres-Message: This API is powered by ReqRes. Deploy your own backend in 30 seconds!
X-Reqres-Templates: https://app.reqres.in/templates
X-Reqres-Tip: Create your own API with custom data - app.reqres.in/dashboard
X-Reqres-Trial: true
X-Reqres-Trial-Days-Remaining: 14
X-Reqres-Trial-Expires: 2026-03-16T07:50:46.963Z
X-Reqres-Upgrade: https://app.reqres.in/upgrade
X-Request-Id: f05c531e-c9fb-3950-9ab6-deb5b0aebb45
X-Robots-Tag: noindex, nofollow
X-Xss-Protection: 1; mode=block
cf-cache-status: BYPASS
Content-Encoding: gzip
CF-RAY: 9d5f2efa7987f112-DME

{
    "page": 2,
    "per_page": 6,
    "total": 12,
    "total_pages": 2,
    "data": [
        {
            "id": 7,
            "email": "michael.lawson@reqres.in",
            "first_name": "Michael",
            "last_name": "Lawson",
            "avatar": "https://reqres.in/img/faces/7-image.jpg"
        },
        {
            "id": 8,
            "email": "lindsay.ferguson@reqres.in",
            "first_name": "Lindsay",
            "last_name": "Ferguson",
            "avatar": "https://reqres.in/img/faces/8-image.jpg"
        },
        {
            "id": 9,
            "email": "tobias.funke@reqres.in",
            "first_name": "Tobias",
            "last_name": "Funke",
            "avatar": "https://reqres.in/img/faces/9-image.jpg"
        },
        {
            "id": 10,
            "email": "byron.fields@reqres.in",
            "first_name": "Byron",
            "last_name": "Fields",
            "avatar": "https://reqres.in/img/faces/10-image.jpg"
        },
        {
            "id": 11,
            "email": "george.edwards@reqres.in",
            "first_name": "George",
            "last_name": "Edwards",
            "avatar": "https://reqres.in/img/faces/11-image.jpg"
        },
        {
            "id": 12,
            "email": "rachel.howell@reqres.in",
            "first_name": "Rachel",
            "last_name": "Howell",
            "avatar": "https://reqres.in/img/faces/12-image.jpg"
        }
    ],
    "support": {
        "url": "https://contentcaddy.io?utm_source=reqres&utm_medium=json&utm_campaign=referral",
        "text": "Tired of writing endless social media content? Let Content Caddy generate it for you."
    },
    "_meta": {
        "powered_by": "ReqRes",
        "docs_url": "https://app.reqres.in/documentation",
        "upgrade_url": "https://app.reqres.in/upgrade",
        "example_url": "https://app.reqres.in/examples/notes-app",
        "variant": "v1_a",
        "message": "Classic ReqRes still works. Projects add persistence, auth, and logs.",
        "cta": {
            "label": "See example app",
            "url": "https://app.reqres.in/examples/notes-app"
        },
        "context": "legacy_success"
    }
}
]]></system-out>
    <system-err><![CDATA[SLF4J: Failed to load class "org.slf4j.impl.StaticLoggerBinder".
SLF4J: Defaulting to no-operation (NOP) logger implementation
SLF4J: See http://www.slf4j.org/codes.html#StaticLoggerBinder for further details.
]]></system-err>
  </testcase>
</testsuite>